"id","categoryName","categoryDescription","creationDate","updationDate"
"3","System Problems",,"2020-08-31 13:47:21",NULL
"4","Internet Problems",,"2020-09-01 10:35:04",NULL
"5","Mail Issues",,"2020-09-01 10:35:13",NULL
"6","Software Installation",,"2020-09-01 10:35:26",NULL
"7","Material Requirement",,"2020-11-21 23:24:37",NULL
